Expected Goals Model
…
## # A tibble: 6 x 5
## # Groups:   player_id [6]
##   player_id team_id_for    xG Goals Difference
##       <dbl>       <dbl> <dbl> <dbl>      <dbl>
## 1   8464989           5  9.20     7      2.20 
## 2   8465009           6  5.64     7     -1.36 
## 3   8466138          28 12.1     20     -7.94 
## 4   8466139          10 20.8     16      4.85 
## 5   8468493          10  3.47     5     -1.53 
## 6   8468498          15  2.65     3     -0.351

arrange(xg_player, desc(xG))

## # A tibble: 1,005 x 5
## # Groups:   player_id [893]
##    player_id team_id_for    xG Goals Difference
##        <dbl>       <dbl> <dbl> <dbl>      <dbl>
##  1   8475166          10  42.2    49     -6.84 
##  2   8477492          21  38.4    46     -7.59 
##  3   8475794          25  37.7    37      0.689
##  4   8475169          28  35.7    32      3.74 
##  5   8478414          28  35.6    35      0.584
##  6   8475765          19  35.2    44     -8.77 
##  7   8475848           8  34.0    33      0.962
##  8   8475314           2  33.7    29      4.72 
##  9   8474715          29  33.1    43     -9.91 
## 10   8476881          28  33.0    44    -11.0  
## #  with 995 more rows
…
Team Evaluation

We can even use the model to assess how well a team performed. How
many more or less goals they scored than expected by the model I
created.

# By team 
## Join the team name in to add more context
xg_team <- Test_Fenwick_Data %>%
  group_by(team_id_for) %>%
  summarise( xG = sum(xG), Goals = sum(is_goal), Difference = sum(xG) - sum(is_goal))

arrange(xg_team, desc(xG))

## # A tibble: 34 x 4
##    team_id_for    xG Goals Difference
##          <dbl> <dbl> <dbl>      <dbl>
##  1          28  316.   346     -30.1 
##  2          19  316.   318      -2.30
##  3          12  304.   281      22.9 
##  4           6  302.   336     -34.1 
##  5          54  289.   271      18.4 
##  6          10  287.   302     -14.7 
##  7          21  279.   292     -12.7 
##  8          25  276.   243      32.8 
##  9           5  273.   277      -3.68
## 10          20  266.   300     -34.1 
## #  with 24 more rows
…
